{
  "products": [
    {
      "title": "Olimp 100% whey complex protein 1800 грамм",
      "url": "https://titan-sport.com.ua/image/cache/catalog/olimp%20complex%201800g-200x200.jpg",
      "article": 1023,
      "color": "black",
      "price" : "1025 грн",
      "id" :12
    },
    {
      "title": "Olimp System Protein 80 (700 грамм)",
      "url": "https://titan-sport.com.ua/image/cache/catalog/olimp%20system%20protein%2080-200x200.jpg",
      "article": 1024,
      "color": "black",
      "price" : "1025 грн"
    },
    {
      "title": "Olimp 100% whey complex protein 700 грамм",
      "url": "https://titan-sport.com.ua/image/cache/catalog/olimp%20protein%20complex%20700g-200x200.jpg",
      "article": 1025,
      "color": "black",
      "price" : "1025 грн"
    },
    {
      "title": "BSN Syntha-6 4.5kg многокомпонентный протеин",
      "url": "https://titan-sport.com.ua/image/cache/catalog/products/L-carnitin/905430d9339aac39cade75d474eab2d6-200x200.jpg",
      "article": 1026,
      "color": "black",
      "price" : "1025 грн"
    },
    {
      "title": "Progress Nutrition Whey Protein 1000 грамм",
      "url": "https://titan-sport.com.ua/image/cache/catalog/progress%20whey%201%20kg-200x200.jpg",
      "article": 1027,
      "color": "black",
      "price" : "1025 грн"
    },
    {
      "title": "Optimum Nutrition Gold Standard 100% Whey 900 грамм",
      "url": "https://titan-sport.com.ua/image/cache/catalog/products/1233/123/234/optimum-nutrition-on-100-whey-sdl800722042-1-9b9d0-400x400-200x200.jpg",
      "article": 1028,
      "color": "black",
      "price" : "1025 грн"
    },
    {
      "title": "Biotech Usa Iso whey zero 25 грамм (1 порция)",
      "url": "https://titan-sport.com.ua/image/cache/catalog/biotech%20iso%20whey%20zero%20probe-200x200.jpg",
      "article": 1029,
      "color": "black",
      "price" : "1025 грн",
      "isFavorit" : false
    },
    {
      "title": "Olimp Pure Whey Isolate 95 Olimp 600 грамм",
      "url": "https://titan-sport.com.ua/image/cache/catalog/products/1234/123/123/Pure_Whey_Isolate_95_Olimp__600_%D0%B3%D1%80._-200x200.jpg",
      "article": 1030,
      "color": "black",
      "price" : "1025 грн"
    },
    {
      "title": "Scitec Nutrition 100% Whey Protein professional 920 грамм",
      "url": "https://titan-sport.com.ua/image/cache/catalog/scitec-nutrition-100-whey-protein-professional-ls-vanilla-920-g-483076-en-200x200.jpg",
      "article": 1031,
      "color": "black",
      "price" : "1025 грн"
    },
    {
      "title": "Biotech Usa Iso whey zero 920 грамм (36 порций)",
      "url": "https://titan-sport.com.ua/image/cache/catalog/biotech%20iso%20whey%20zero%20900-200x200.jpg",
      "article": 1032,
      "color": "black",
      "price" : "1025 грн"
    }
  ]
}
